{
    "ticker": "SNGSP",
    "name": "\u0421\u0443\u0440\u0433\u0443\u0442\u043d\u0435\u0444\u0442\u0435\u0433\u0430\u0437 \u041f\u0410\u041e \u0430\u043f",
    "short_name": "\u0421\u0443\u0440\u0433\u043d\u0444\u0433\u0437-\u043f",
    "isin": "RU0009029524",
    "reg_number": "2-01-00155-A",
    "type": "stock"
}