{
    "ticker": "AKRN",
    "name": "\u0410\u043a\u0440\u043e\u043d \u041f\u0410\u041e \u0430\u043e",
    "short_name": "\u0410\u043a\u0440\u043e\u043d",
    "isin": "RU0009028674",
    "reg_number": "1-03-00207-A",
    "type": "stock"
}