{
    "ticker": "MGNT",
    "name": "\"\u041c\u0430\u0433\u043d\u0438\u0442\" \u041f\u0410\u041e \u0430\u043e",
    "short_name": "\u041c\u0430\u0433\u043d\u0438\u0442 \u0430\u043e",
    "isin": "RU000A0JKQU8",
    "reg_number": "1-01-60525-P",
    "type": "stock"
}