{
    "ticker": "MTLRP",
    "name": "\u041c\u0435\u0447\u0435\u043b \u041f\u0410\u041e \u0430\u043f",
    "short_name": "\u041c\u0435\u0447\u0435\u043b \u0430\u043f",
    "isin": "RU000A0JPV70",
    "reg_number": "2-01-55005-E",
    "type": "stock"
}