{
    "ticker": "GMKN",
    "name": "\u0413\u041c\u041a \"\u041d\u043e\u0440.\u041d\u0438\u043a\u0435\u043b\u044c\" \u041f\u0410\u041e \u0430\u043e",
    "short_name": "\u0413\u041c\u041a\u041d\u043e\u0440\u041d\u0438\u043a",
    "isin": "RU0007288411",
    "reg_number": "1-01-40155-F",
    "type": "stock"
}