{
    "ticker": "MTSS",
    "name": "\u041c\u043e\u0431\u0438\u043b\u044c\u043d\u044b\u0435 \u0422\u0435\u043b\u0435\u0421\u0438\u0441\u0442\u0435\u043c\u044b \u041f\u0410\u041e \u0430\u043e",
    "short_name": "\u041c\u0422\u0421-\u0430\u043e",
    "isin": "RU0007775219",
    "reg_number": "1-01-04715-A",
    "type": "stock"
}