{
    "ticker": "UPRO",
    "name": "\u042e\u043d\u0438\u043f\u0440\u043e \u041f\u0410\u041e \u0430\u043e",
    "short_name": "\u042e\u043d\u0438\u043f\u0440\u043e \u0430\u043e",
    "isin": "RU000A0JNGA5",
    "reg_number": "1-02-65104-D",
    "type": "stock"
}