{
    "ticker": "BANE",
    "name": "\u0411\u0430\u0448\u043d\u0435\u0444\u0442\u044c \u0410\u041d\u041a \u0430\u043e",
    "short_name": "\u0411\u0430\u0448\u043d\u0435\u0444\u0442 \u0430\u043e",
    "isin": "RU0007976957",
    "reg_number": "1-01-00013-A",
    "type": "stock"
}