{
    "ticker": "NKNCP",
    "name": "\"\u041d\u0438\u0436\u043d\u0435\u043a\u0430\u043c\u0441\u043a\u043d\u0435\u0444\u0442\u0435\u0445\u0438\u043c\" \u041f\u0410\u041e \u0430\u043f",
    "short_name": "\u041d\u041a\u041d\u0425 \u0430\u043f",
    "isin": "RU0006765096",
    "reg_number": "2-02-00096-A",
    "type": "stock"
}