{
    "ticker": "CBOM",
    "name": "\"\u041c\u041a\u0411\" \u041f\u0410\u041e \u0430\u043e",
    "short_name": "\u041c\u041a\u0411 \u0430\u043e",
    "isin": "RU000A0JUG31",
    "reg_number": "10101978B",
    "type": "stock"
}