{
    "ticker": "OZON",
    "name": "\u0410\u0414\u0420 Ozon Holdings PLC ORD SHS",
    "short_name": "OZON-\u0430\u0434\u0440",
    "isin": "US69269L1044",
    "reg_number": null,
    "type": "stock"
}