{
    "ticker": "TCSG",
    "name": "\u0413\u0414\u0420 TCS Group Holding ORD SHS",
    "short_name": "TCS-\u0433\u0434\u0440",
    "isin": "US87238U2033",
    "reg_number": null,
    "type": "stock"
}