[
    {
        "close_date": "2012-05-14",
        "announce_date": "2012-04-23",
        "year": 2011,
        "period": "YEAR",
        "payout_per_stock": 99,
        "payout_currency": "RUB",
        "is_payed": true
    }, {
        "close_date": "2013-05-14",
        "announce_date": "2013-04-29",
        "year": 2012,
        "period": "YEAR",
        "payout_per_stock": 24,
        "payout_currency": "RUB",
        "is_payed": true
    }, {
        "close_date": "2013-11-04",
        "announce_date": "2013-10-22",
        "year": 2013,
        "period": "9M",
        "payout_per_stock": 199,
        "payout_currency": "RUB",
        "is_payed": true
    }, {
        "close_date": "2014-06-22",
        "announce_date": "2014-04-22",
        "year": 2013,
        "period": "12M",
        "payout_per_stock": 211,
        "payout_currency": "RUB",
        "is_payed": true
    }, {
        "close_date": "2015-07-16",
        "announce_date": "2015-05-27",
        "year": 2014,
        "period": "YEAR",
        "payout_per_stock": 113,
        "payout_currency": "RUB",
        "is_payed": true
    }, {
        "close_date": "2016-07-14",
        "announce_date": "2016-06-22",
        "year": 2015,
        "period": "YEAR",
        "payout_per_stock": 164,
        "payout_currency": "RUB",
        "is_payed": true
    }, {
        "close_date": "2017-12-11",
        "announce_date": "2017-10-26",
        "year": 2017,
        "period": "9M",
        "payout_per_stock": 148.31,
        "payout_currency": "RUB",
        "is_payed": true
    }, {
        "close_date": "2018-07-08",
        "announce_date": "2018-05-22",
        "year": 2017,
        "period": "12M",
        "payout_per_stock": 158.95,
        "payout_currency": "RUB",
        "is_payed": true
    }, {
        "close_date": "2019-06-23",
        "announce_date": "2019-05-06",
        "year": 2018,
        "period": "YEAR",
        "payout_per_stock": 158.95,
        "payout_currency": "RUB",
        "is_payed": true
    }, {
        "close_date": "2020-07-05",
        "announce_date": "2020-05-14",
        "year": 2019,
        "period": "YEAR",
        "payout_per_stock": 107.81,
        "payout_currency": "RUB",
        "is_payed": true
    }, {
        "close_date": "2022-07-10",
        "announce_date": "2022-06-06",
        "year": 2021,
        "period": "YEAR",
        "payout_per_stock": 117.29,
        "payout_currency": "RUB",
        "is_payed": true
    }
]