[
    {
        "close_date": "2011-10-25",
        "announce_date": "2011-10-18",
        "year": 2011,
        "period": "9M",
        "payout_per_stock": 25,
        "payout_currency": "RUB",
        "is_payed": true
    }, {
        "close_date": "2012-04-17",
        "announce_date": "2012-04-12",
        "year": 2011,
        "period": "12M",
        "payout_per_stock": 32.5,
        "payout_currency": "RUB",
        "is_payed": true
    }, {
        "close_date": "2012-08-21",
        "announce_date": "2012-08-14",
        "year": 2012,
        "period": "6M",
        "payout_per_stock": 38,
        "payout_currency": "RUB",
        "is_payed": true
    }, {
        "close_date": "2012-11-22",
        "announce_date": "2012-11-19",
        "year": 2012,
        "period": "9M",
        "payout_per_stock": 25,
        "payout_currency": "RUB",
        "is_payed": true
    }, {
        "close_date": "2013-04-21",
        "announce_date": "2013-04-08",
        "year": 2012,
        "period": "NRASP",
        "payout_per_stock": 19.9,
        "payout_currency": "RUB",
        "is_payed": true
    }, {
        "close_date": "2013-09-05",
        "announce_date": "2013-08-20",
        "year": 2013,
        "period": "6M",
        "payout_per_stock": 15.45,
        "payout_currency": "RUB",
        "is_payed": true
    }, {
        "close_date": "2014-06-23",
        "announce_date": "2014-04-14",
        "year": 2013,
        "period": "NRASP",
        "payout_per_stock": 19.3,
        "payout_currency": "RUB",
        "is_payed": true
    }, {
        "close_date": "2014-09-28",
        "announce_date": "2014-08-18",
        "year": 2014,
        "period": "6M",
        "payout_per_stock": 25,
        "payout_currency": "RUB",
        "is_payed": true
    }, {
        "close_date": "2015-01-10",
        "announce_date": "2014-11-17",
        "year": 2014,
        "period": "9M",
        "payout_per_stock": 20,
        "payout_currency": "RUB",
        "is_payed": true
    }, {
        "close_date": "2015-06-18",
        "announce_date": "2015-04-27",
        "year": 2014,
        "period": "12M",
        "payout_per_stock": 15,
        "payout_currency": "RUB",
        "is_payed": true
    }, {
        "close_date": "2015-07-24",
        "announce_date": "2015-05-27",
        "year": 2015,
        "period": "3M",
        "payout_per_stock": 48,
        "payout_currency": "RUB",
        "is_payed": true
    }, {
        "close_date": "2015-10-16",
        "announce_date": "2015-08-16",
        "year": 2015,
        "period": "6M",
        "payout_per_stock": 57,
        "payout_currency": "RUB",
        "is_payed": true
    }, {
        "close_date": "2016-01-25",
        "announce_date": "2016-01-17",
        "year": 2015,
        "period": "9M",
        "payout_per_stock": 63,
        "payout_currency": "RUB",
        "is_payed": true
    }, {
        "close_date": "2016-06-10",
        "announce_date": "2016-03-22",
        "year": 2015,
        "period": "12M",
        "payout_per_stock": 57,
        "payout_currency": "RUB",
        "is_payed": true
    }, {
        "close_date": "2016-08-09",
        "announce_date": "2016-05-26",
        "year": 2016,
        "period": "3M",
        "payout_per_stock": 63,
        "payout_currency": "RUB",
        "is_payed": true
    }, {
        "close_date": "2016-10-13",
        "announce_date": "2016-08-16",
        "year": 2016,
        "period": "NRASP",
        "payout_per_stock": 33,
        "payout_currency": "RUB",
        "is_payed": true
    }, {
        "close_date": "2017-01-26",
        "announce_date": "2016-11-14",
        "year": 2016,
        "period": "9M",
        "payout_per_stock": 39,
        "payout_currency": "RUB",
        "is_payed": true
    }, {
        "close_date": "2017-06-12",
        "announce_date": "2017-03-21",
        "year": 2016,
        "period": "12M",
        "payout_per_stock": 30,
        "payout_currency": "RUB",
        "is_payed": true
    }, {
        "close_date": "2017-07-16",
        "announce_date": "2017-05-18",
        "year": 2017,
        "period": "3M",
        "payout_per_stock": 21,
        "payout_currency": "RUB",
        "is_payed": true
    }, {
        "close_date": "2017-10-12",
        "announce_date": "2017-08-22",
        "year": 2017,
        "period": "NRASP",
        "payout_per_stock": 24,
        "payout_currency": "RUB",
        "is_payed": true
    }, {
        "close_date": "2018-03-11",
        "announce_date": "2017-11-23",
        "year": 2017,
        "period": "9M",
        "payout_per_stock": 21,
        "payout_currency": "RUB",
        "is_payed": true
    }, {
        "close_date": "2018-06-12",
        "announce_date": "2018-03-20",
        "year": 2017,
        "period": "12M",
        "payout_per_stock": 15,
        "payout_currency": "RUB",
        "is_payed": true
    }, {
        "close_date": "2018-07-22",
        "announce_date": "2018-05-30",
        "year": 2018,
        "period": "NRASP",
        "payout_per_stock": 24,
        "payout_currency": "RUB",
        "is_payed": true
    }, {
        "close_date": "2018-10-11",
        "announce_date": "2018-08-22",
        "year": 2018,
        "period": "3M",
        "payout_per_stock": 45,
        "payout_currency": "RUB",
        "is_payed": true
    }, {
        "close_date": "2019-02-03",
        "announce_date": "2018-11-19",
        "year": 2018,
        "period": "NRASP",
        "payout_per_stock": 72,
        "payout_currency": "RUB",
        "is_payed": true
    }, {
        "close_date": "2019-06-09",
        "announce_date": "2019-03-19",
        "year": 2018,
        "period": "12M",
        "payout_per_stock": 51,
        "payout_currency": "RUB",
        "is_payed": true
    }, {
        "close_date": "2019-07-09",
        "announce_date": "2019-05-15",
        "year": 2019,
        "period": "NRASP",
        "payout_per_stock": 72,
        "payout_currency": "RUB",
        "is_payed": true
    }, {
        "close_date": "2019-10-14",
        "announce_date": "2019-09-01",
        "year": 2019,
        "period": "3M",
        "payout_per_stock": 54,
        "payout_currency": "RUB",
        "is_payed": true
    }, {
        "close_date": "2020-02-03",
        "announce_date": "2019-11-24",
        "year": 2019,
        "period": "NRASP",
        "payout_per_stock": 48,
        "payout_currency": "RUB",
        "is_payed": true
    }, {
        "close_date": "2020-06-01",
        "announce_date": "2020-02-20",
        "year": 2019,
        "period": "12M",
        "payout_per_stock": 18,
        "payout_currency": "RUB",
        "is_payed": true
    }, {
        "close_date": "2020-07-05",
        "announce_date": "2020-05-12",
        "year": 2020,
        "period": "3M",
        "payout_per_stock": 78,
        "payout_currency": "RUB",
        "is_payed": true
    }, {
        "close_date": "2020-10-14",
        "announce_date": "2020-08-27",
        "year": 2020,
        "period": "NRASP",
        "payout_per_stock": 33,
        "payout_currency": "RUB",
        "is_payed": true
    }, {
        "close_date": "2020-12-24",
        "announce_date": "2020-11-05",
        "year": 2020,
        "period": "9M",
        "payout_per_stock": 123,
        "payout_currency": "RUB",
        "is_payed": true
    }, {
        "close_date": "2021-06-06",
        "announce_date": "2021-04-13",
        "year": 2020,
        "period": "12M",
        "payout_per_stock": 63,
        "payout_currency": "RUB",
        "is_payed": true
    }, {
        "close_date": "2021-07-04",
        "announce_date": "2021-05-17",
        "year": 2021,
        "period": "3M",
        "payout_per_stock": 105,
        "payout_currency": "RUB",
        "is_payed": true
    }, {
        "close_date": "2021-09-23",
        "announce_date": "2021-08-05",
        "year": 2021,
        "period": "6M",
        "payout_per_stock": 156,
        "payout_currency": "RUB",
        "is_payed": true
    }, {
        "close_date": "2021-12-19",
        "announce_date": "2021-11-02",
        "year": 2021,
        "period": "9M",
        "payout_per_stock": 234,
        "payout_currency": "RUB",
        "is_payed": true
    }, {
        "close_date": "2022-10-02",
        "announce_date": "2022-08-17",
        "year": 2022,
        "period": "6M",
        "payout_per_stock": 780,
        "payout_currency": "RUB",
        "is_payed": true
    }
]