[
    {
        "close_date": "2011-05-16",
        "announce_date": "2011-05-04",
        "year": 2010,
        "period": "YEAR",
        "payout_per_stock": 0.001544,
        "payout_currency": "RUB",
        "is_payed": true
    }, {
        "close_date": "2015-06-08",
        "announce_date": "2015-04-08",
        "year": 2014,
        "period": "YEAR",
        "payout_per_stock": 0.0010397,
        "payout_currency": "RUB",
        "is_payed": true
    }, {
        "close_date": "2016-06-20",
        "announce_date": "2016-04-06",
        "year": 2015,
        "period": "YEAR",
        "payout_per_stock": 0.0178,
        "payout_currency": "RUB",
        "is_payed": true
    }, {
        "close_date": "2017-06-19",
        "announce_date": "2017-04-06",
        "year": 2016,
        "period": "YEAR",
        "payout_per_stock": 0.1468,
        "payout_currency": "RUB",
        "is_payed": true
    }, {
        "close_date": "2018-05-31",
        "announce_date": "2018-03-15",
        "year": 2017,
        "period": "YEAR",
        "payout_per_stock": 0.1304,
        "payout_currency": "RUB",
        "is_payed": true
    }, {
        "close_date": "2019-05-30",
        "announce_date": "2019-03-14",
        "year": 2018,
        "period": "YEAR",
        "payout_per_stock": 0.1716,
        "payout_currency": "RUB",
        "is_payed": true
    }, {
        "close_date": "2020-05-31",
        "announce_date": "2020-03-17",
        "year": 2019,
        "period": "YEAR",
        "payout_per_stock": 0.1962,
        "payout_currency": "RUB",
        "is_payed": true
    }, {
        "close_date": "2021-06-06",
        "announce_date": "2021-03-16",
        "year": 2020,
        "period": "YEAR",
        "payout_per_stock": 0.1807,
        "payout_currency": "RUB",
        "is_payed": true
    }, {
        "close_date": "2022-06-09",
        "announce_date": "2022-03-29",
        "year": 2021,
        "period": "YEAR",
        "payout_per_stock": 0.2366,
        "payout_currency": "RUB",
        "is_payed": true
    }
]