[
    {
        "close_date": "2004-10-07",
        "announce_date": "2004-10-10",
        "year": 2004,
        "period": "9M",
        "payout_per_stock": 37.16,
        "payout_currency": "RUB",
        "is_payed": true
    }, {
        "close_date": "2005-05-11",
        "announce_date": "2005-06-08",
        "year": 2004,
        "period": "12M",
        "payout_per_stock": 25.13,
        "payout_currency": "RUB",
        "is_payed": true
    }, {
        "close_date": "2005-11-10",
        "announce_date": "2005-10-30",
        "year": 2005,
        "period": "9M",
        "payout_per_stock": 38.6,
        "payout_currency": "RUB",
        "is_payed": true
    }, {
        "close_date": "2006-05-14",
        "announce_date": "2006-06-01",
        "year": 2005,
        "period": "12M",
        "payout_per_stock": 53.49,
        "payout_currency": "RUB",
        "is_payed": true
    }, {
        "close_date": "2006-10-04",
        "announce_date": "2006-10-05",
        "year": 2006,
        "period": "9M",
        "payout_per_stock": 56,
        "payout_currency": "RUB",
        "is_payed": true
    }, {
        "close_date": "2007-05-14",
        "announce_date": "2007-06-04",
        "year": 2006,
        "period": "12M",
        "payout_per_stock": 120,
        "payout_currency": "RUB",
        "is_payed": true
    }, {
        "close_date": "2007-11-12",
        "announce_date": "2007-11-01",
        "year": 2007,
        "period": "9M",
        "payout_per_stock": 108,
        "payout_currency": "RUB",
        "is_payed": true
    }, {
        "close_date": "2008-05-25",
        "announce_date": "2008-05-25",
        "year": 2007,
        "period": "12M",
        "payout_per_stock": 112,
        "payout_currency": "RUB",
        "is_payed": true
    }, {
        "close_date": "2010-05-20",
        "announce_date": "2010-05-26",
        "year": 2009,
        "period": "YEAR",
        "payout_per_stock": 210,
        "payout_currency": "RUB",
        "is_payed": true
    }, {
        "close_date": "2011-05-15",
        "announce_date": "2011-04-05",
        "year": 2010,
        "period": "YEAR",
        "payout_per_stock": 180,
        "payout_currency": "RUB",
        "is_payed": true
    }, {
        "close_date": "2012-05-23",
        "announce_date": "2012-05-20",
        "year": 2011,
        "period": "YEAR",
        "payout_per_stock": 196,
        "payout_currency": "RUB",
        "is_payed": true
    }, {
        "close_date": "2013-04-29",
        "announce_date": "2013-04-18",
        "year": 2012,
        "period": "YEAR",
        "payout_per_stock": 400.83,
        "payout_currency": "RUB",
        "is_payed": true
    }, {
        "close_date": "2013-10-31",
        "announce_date": "2013-10-24",
        "year": 2013,
        "period": "9M",
        "payout_per_stock": 220.7,
        "payout_currency": "RUB",
        "is_payed": true
    }, {
        "close_date": "2014-06-16",
        "announce_date": "2014-04-24",
        "year": 2013,
        "period": "12M",
        "payout_per_stock": 248.48,
        "payout_currency": "RUB",
        "is_payed": true
    }, {
        "close_date": "2014-12-21",
        "announce_date": "2014-10-30",
        "year": 2014,
        "period": "9M",
        "payout_per_stock": 762.34,
        "payout_currency": "RUB",
        "is_payed": true
    }, {
        "close_date": "2015-05-24",
        "announce_date": "2015-04-09",
        "year": 2014,
        "period": "12M",
        "payout_per_stock": 670.04,
        "payout_currency": "RUB",
        "is_payed": true
    }, {
        "close_date": "2015-09-24",
        "announce_date": "2015-08-03",
        "year": 2015,
        "period": "6M",
        "payout_per_stock": 305.07,
        "payout_currency": "RUB",
        "is_payed": true
    }, {
        "close_date": "2015-12-29",
        "announce_date": "2015-11-09",
        "year": 2015,
        "period": "9M",
        "payout_per_stock": 321.95,
        "payout_currency": "RUB",
        "is_payed": true
    }, {
        "close_date": "2016-06-20",
        "announce_date": "2016-04-27",
        "year": 2015,
        "period": "12M",
        "payout_per_stock": 230.14,
        "payout_currency": "RUB",
        "is_payed": true
    }, {
        "close_date": "2016-12-27",
        "announce_date": "2016-11-10",
        "year": 2016,
        "period": "9M",
        "payout_per_stock": 444.25,
        "payout_currency": "RUB",
        "is_payed": true
    }, {
        "close_date": "2017-06-22",
        "announce_date": "2017-04-27",
        "year": 2016,
        "period": "12M",
        "payout_per_stock": 446.1,
        "payout_currency": "RUB",
        "is_payed": true
    }, {
        "close_date": "2017-10-18",
        "announce_date": "2017-08-24",
        "year": 2017,
        "period": "6M",
        "payout_per_stock": 224.2,
        "payout_currency": "RUB",
        "is_payed": true
    }, {
        "close_date": "2018-07-16",
        "announce_date": "2018-05-24",
        "year": 2017,
        "period": "12M",
        "payout_per_stock": 607.98,
        "payout_currency": "RUB",
        "is_payed": true
    }, {
        "close_date": "2018-09-30",
        "announce_date": "2018-08-13",
        "year": 2018,
        "period": "6M",
        "payout_per_stock": 776.02,
        "payout_currency": "RUB",
        "is_payed": true
    }, {
        "close_date": "2019-06-20",
        "announce_date": "2019-04-25",
        "year": 2018,
        "period": "12M",
        "payout_per_stock": 792.52,
        "payout_currency": "RUB",
        "is_payed": true
    }, {
        "close_date": "2019-10-06",
        "announce_date": "2019-08-19",
        "year": 2019,
        "period": "6M",
        "payout_per_stock": 883.93,
        "payout_currency": "RUB",
        "is_payed": true
    }, {
        "close_date": "2019-12-26",
        "announce_date": "2019-11-10",
        "year": 2019,
        "period": "9M",
        "payout_per_stock": 604.09,
        "payout_currency": "RUB",
        "is_payed": true
    }, {
        "close_date": "2020-05-24",
        "announce_date": "2020-04-06",
        "year": 2019,
        "period": "12M",
        "payout_per_stock": 557.2,
        "payout_currency": "RUB",
        "is_payed": true
    }, {
        "close_date": "2020-12-23",
        "announce_date": "2020-11-02",
        "year": 2020,
        "period": "9M",
        "payout_per_stock": 623.35,
        "payout_currency": "RUB",
        "is_payed": true
    }, {
        "close_date": "2021-05-31",
        "announce_date": "2021-04-08",
        "year": 2020,
        "period": "12M",
        "payout_per_stock": 1021.22,
        "payout_currency": "RUB",
        "is_payed": true
    }, {
        "close_date": "2022-01-13",
        "announce_date": "2021-11-22",
        "year": 2021,
        "period": "9M",
        "payout_per_stock": 1523.17,
        "payout_currency": "RUB",
        "is_payed": true
    }, {
        "close_date": "2022-06-13",
        "announce_date": "2022-04-21",
        "year": 2021,
        "period": "12M",
        "payout_per_stock": 1166.22,
        "payout_currency": "RUB",
        "is_payed": true
    }
]