[
  {
    "close_date": "2011-05-02",
    "announce_date": "2011-04-25",
    "year": 2010,
    "period": "YEAR",
    "payout_per_stock": 0.0048759,
    "payout_currency": "RUB",
    "is_payed": true
  },
  {
    "close_date": "2012-05-16",
    "announce_date": "2012-05-21",
    "year": 2011,
    "period": "YEAR",
    "payout_per_stock": 0.0009988,
    "payout_currency": "RUB",
    "is_payed": true
  },
  {
    "close_date": "2015-06-24",
    "announce_date": "2015-05-07",
    "year": 2014,
    "period": "YEAR",
    "payout_per_stock": 0.0081415,
    "payout_currency": "RUB",
    "is_payed": true
  },
  {
    "close_date": "2016-06-19",
    "announce_date": "2016-04-28",
    "year": 2015,
    "period": "YEAR",
    "payout_per_stock": 0.0056738,
    "payout_currency": "RUB",
    "is_payed": true
  },
  {
    "close_date": "2017-06-19",
    "announce_date": "2017-05-04",
    "year": 2016,
    "period": "YEAR",
    "payout_per_stock": 0.008253,
    "payout_currency": "RUB",
    "is_payed": true
  },
  {
    "close_date": "2018-07-09",
    "announce_date": "2018-05-22",
    "year": 2017,
    "period": "YEAR",
    "payout_per_stock": 0.0163,
    "payout_currency": "RUB",
    "is_payed": true
  },
  {
    "close_date": "2019-06-27",
    "announce_date": "2019-05-06",
    "year": 2018,
    "period": "YEAR",
    "payout_per_stock": 0.0368,
    "payout_currency": "RUB",
    "is_payed": true
  },
  {
    "close_date": "2020-07-09",
    "announce_date": "2020-05-27",
    "year": 2019,
    "period": "YEAR",
    "payout_per_stock": 0.0544,
    "payout_currency": "RUB",
    "is_payed": true
  },
  {
    "close_date": "2021-07-01",
    "announce_date": "2021-05-18",
    "year": 2020,
    "period": "YEAR",
    "payout_per_stock": 0.06,
    "payout_currency": "RUB",
    "is_payed": true
  },
  {
    "close_date": "2022-07-10",
    "announce_date": "2022-05-30",
    "year": 2021,
    "period": "YEAR",
    "payout_per_stock": 0.0966,
    "payout_currency": "RUB",
    "is_payed": true
  }
]