[
  {
    "close_date": "2022-01-07",
    "announce_date": "2021-11-14",
    "year": 2021,
    "period": "9M",
    "payout_per_stock": 0.42,
    "payout_currency": "RUB",
    "is_payed": true
  },
  {
    "close_date": "2022-06-01",
    "announce_date": "2022-04-14",
    "year": 2021,
    "period": "12M",
    "payout_per_stock": 0.64,
    "payout_currency": "RUB",
    "is_payed": true
  }
]